{
  "dev": {
    "awscloudformation": {
      "AuthRoleName": "amplify-netflix-dev-114305-authRole",
      "UnauthRoleArn": "arn:aws:iam::789168098904:role/amplify-netflix-dev-114305-unauthRole",
      "AuthRoleArn": "arn:aws:iam::789168098904:role/amplify-netflix-dev-114305-authRole",
      "Region": "us-east-2",
      "DeploymentBucketName": "amplify-netflix-dev-114305-deployment",
      "UnauthRoleName": "amplify-netflix-dev-114305-unauthRole",
      "StackName": "amplify-netflix-dev-114305",
      "StackId": "arn:aws:cloudformation:us-east-2:789168098904:stack/amplify-netflix-dev-114305/78a15f30-ea10-11eb-ab2d-064a5823ea2c",
      "AmplifyAppId": "d2ggfrrpwnj3m4"
    },
    "categories": {
      "auth": {
        "netflix5531782c": {}
      }
    }
  }
}